100 Particles, .5 Kelvin
100
 0.18630244723849035 0.9563935078937432 0.004447197963673523 0.008822378644374858 0.02 13800.0 180 218 239
 0.8583371747616064 0.9490670834154966 -0.008204879544777412 -0.0050656796543016285 0.02 13800.0 150 32 249
 0.4999921063633918 0.33552737687919415 -0.002125265708436245 0.007369658165676769 0.02 13800.0 238 172 42
 0.8625193978418202 0.8482504687895446 -0.012352168147741652 -0.008892638728704784 0.02 13800.0 129 22 145
 0.548208435488831 0.4954360333710361 -1.7079240613131902E-4 0.009197425947140514 0.02 13800.0 100 106 209
 0.9666063012283873 0.7723160402198577 -3.568896646167184E-4 0.0025226001725246906 0.02 13800.0 203 236 191
 0.7566683517171692 0.4733802805098085 -0.01069819318654983 -0.004275779784909149 0.02 13800.0 37 220 102
 0.3354181491457097 0.6350034962282252 -0.009774431769943356 0.01409140144209664 0.02 13800.0 134 13 36
 0.6926467438990284 0.7497073150941218 -0.0017916721630364153 0.0017313618034630494 0.02 13800.0 110 45 230
 0.05679827113399911 0.20422101063022782 -0.0015399578662919286 0.006061992261957453 0.02 13800.0 251 11 6
 0.23191784786407144 0.8887220422510722 -0.011275008706059233 0.005074870148595909 0.02 13800.0 230 102 0
 0.2929980069763384 0.24130740954247215 0.014842347973037219 -0.0028700921559901512 0.02 13800.0 16 70 195
 0.7696102688742966 0.7720635157861672 -8.536974788095758E-4 -0.002548509004041353 0.02 13800.0 35 83 49
 0.6351965898749399 0.2610419657918239 0.0037034670377586783 0.004755361599379867 0.02 13800.0 55 118 109
 0.1980221846412846 0.14473481310682362 0.012291103308819561 0.005320879745131424 0.02 13800.0 35 26 204
 0.23439331293444754 0.7937676065166768 9.725745884924418E-4 0.013906054837103141 0.02 13800.0 111 200 120
 0.8378299627960166 0.06780047426539304 0.014507445239632991 -0.003062677764603658 0.02 13800.0 180 20 53
 0.3520289102218176 0.527634461901063 0.010747272495726847 -0.007267758253714099 0.02 13800.0 247 84 119
 0.2799457892885938 0.43684424936183036 0.0010528677416911936 0.008262521614548867 0.02 13800.0 193 177 225
 0.7458094148694685 0.024052176007360863 0.001810354320234988 -8.852703687638394E-4 0.02 13800.0 224 175 110
 0.7493246919067489 0.5178792971249739 8.044370896916966E-4 0.006303186576231761 0.02 13800.0 128 247 29
 0.5785268240802894 0.6048511168883156 -7.158207112107611E-4 -0.0065650271959408835 0.02 13800.0 117 69 142
 0.35849726618144 0.022766840987725374 -0.00978965383564815 -9.07680330091077E-4 0.02 13800.0 222 166 82
 0.738808704936938 0.8245668272633767 -0.010090455477910617 -0.0018054793722929764 0.02 13800.0 170 72 199
 0.6599377571178707 0.6789260096976054 0.006279473662668185 0.0023542638446123532 0.02 13800.0 15 201 230
 0.9496737684421092 0.9344607344771437 -0.004751387522123295 0.004090101265546763 0.02 13800.0 22 179 92
 0.5773114762998447 0.19028643383180133 -0.008786485135759201 0.004761748547057545 0.02 13800.0 211 251 143
 0.2985954749857557 0.16893258495996943 -0.0019779012817253555 0.0019412330872668696 0.02 13800.0 113 84 96
 0.802937510002941 0.5294874686430775 0.00853290313003243 0.003657105276735278 0.02 13800.0 167 10 11
 0.9575142983908276 0.35364926461906593 -0.005737016157663865 -0.001330098066008336 0.02 13800.0 136 151 32
 0.13465733035583702 0.4444667208150619 -0.00406174577544765 0.007082688536858147 0.02 13800.0 65 152 219
 0.30089796650702266 0.28431334389213325 -0.010503379900020466 4.671773518040885E-4 0.02 13800.0 120 103 189
 0.8719594791692207 0.18267413707796343 -0.006374889589430105 0.002992981367499002 0.02 13800.0 8 120 34
 0.4148013088577171 0.5860608075791414 1.5768935858963528E-5 0.007089428330131409 0.02 13800.0 235 196 217
 0.7244683118456078 0.6021974614993699 3.5207403654764454E-4 9.10631787749477E-5 0.02 13800.0 13 103 207
 0.032700280185096846 0.8200786559563952 4.692990347555416E-5 0.00929852403217227 0.02 13800.0 204 136 220
 0.17555856640109144 0.5658914757919746 -0.008524848540343528 0.006389374085738563 0.02 13800.0 161 57 191
 0.28761456890930487 0.05185974638819064 -0.004752900814821768 -2.931990164781939E-4 0.02 13800.0 192 218 29
 0.13900481677088247 0.8595234751293412 0.00600002455113449 0.009119558635052894 0.02 13800.0 120 142 3
 0.6647115814871822 0.07394205597234789 -0.008746030428415107 6.155534127207012E-4 0.02 13800.0 201 1 75
 0.938589571527698 0.82034731472783 -0.008129733589070804 0.012822118807406552 0.02 13800.0 178 128 16
 0.08397339959455678 0.8755864686092127 -0.008174869535906515 -0.007374827132593688 0.02 13800.0 222 196 80
 0.21276896278488305 0.2862479386523503 -0.006015279200381168 -0.003446918827186983 0.02 13800.0 74 101 204
 0.1912634883380052 0.4979001891113212 0.0011467934315482478 0.0032283010230001485 0.02 13800.0 115 157 62
 0.3928513017813151 0.49906035714842306 6.916528445602768E-4 -0.007127847887205679 0.02 13800.0 136 60 152
 0.36220392689126324 0.17663206307982382 0.0038082783648160107 -0.009407707024544671 0.02 13800.0 183 210 172
 0.6866256201103811 0.14226328568412483 -0.005760995519483569 0.0039199131286126315 0.02 13800.0 121 136 31
 0.5700477256351353 0.36357643870903394 -0.00209017491405955 0.001345728445335469 0.02 13800.0 46 173 206
 0.1033637255435935 0.30365336404674803 -0.001581418768731344 -0.00837548392964301 0.02 13800.0 84 96 34
 0.12779306797988635 0.5566915186949041 -0.01270363977203752 -0.013337187520737512 0.02 13800.0 74 130 8
 0.12629687415185675 0.37049076392297886 -0.0010304037893865202 -6.387448056823092E-4 0.02 13800.0 199 133 188
 0.9517589386219736 0.5648908851273026 0.0037254655076477236 0.008486400441580121 0.02 13800.0 32 130 66
 0.027485754672639688 0.7257241285691944 9.809557312731479E-4 -9.241243684086943E-4 0.02 13800.0 53 179 177
 0.4626744545101558 0.1692023789726649 0.011211995637498876 -0.012773091040291628 0.02 13800.0 11 106 183
 0.8132993890208557 0.16925318110912538 -0.005500275447658149 0.0015731128033649152 0.02 13800.0 98 244 55
 0.5489394952208375 0.8054568659501681 0.0017445321547116827 0.01101037940453762 0.02 13800.0 68 105 169
 0.7721632964137126 0.13972732797765827 0.010207762780578434 0.00449770218142765 0.02 13800.0 84 190 90
 0.5266207171610061 0.5442901848611427 0.01834125755378461 -3.22989821839495E-4 0.02 13800.0 181 232 44
 0.6237861387962974 0.1424073562408729 0.012727172131526077 -0.004758220548166539 0.02 13800.0 197 153 147
 0.18613093167626973 0.2287634331302294 0.0052160966508829135 0.005913998410945804 0.02 13800.0 181 212 121
 0.0989211278099167 0.9549789517812214 0.002052158524244415 0.008585896883124361 0.02 13800.0 118 143 207
 0.4564133439691178 0.7621865142668643 0.00162732329060454 0.005734654940734942 0.02 13800.0 141 174 227
 0.6289226063616836 0.8907731017611826 -5.837295367318376E-4 -0.0025254334205289885 0.02 13800.0 253 63 194
 0.7017540847572413 0.28839761317929397 0.005669946057880643 -5.704367808443698E-4 0.02 13800.0 8 188 183
 0.8648735492791292 0.6356744389332416 -0.003338257657346598 -0.02124566855148198 0.02 13800.0 161 93 152
 0.9362044076293501 0.030014397939286428 2.780998253135731E-4 0.00145128748484003 0.02 13800.0 8 216 86
 0.832020116166948 0.5661973646871591 9.342001030277318E-4 0.002511675920345344 0.02 13800.0 192 122 218
 0.6476135749916186 0.5158497252704622 -0.0021860154647052755 -0.00869379360861586 0.02 13800.0 214 37 141
 0.28877197215949363 0.6102004540774714 0.0045747527693007165 0.007153766627448751 0.02 13800.0 84 209 37
 0.47546091519992884 0.4559421256921568 0.005342162638386187 0.007754535990033703 0.02 13800.0 8 180 53
 0.1036154327413756 0.05465680411169904 -0.0091265226510994 0.009440168803292548 0.02 13800.0 211 51 98
 0.35259303330900355 0.07308610606342418 0.011169964711579872 0.0065058644829063365 0.02 13800.0 158 85 151
 0.4034079906879323 0.964993942956506 0.015816771524761485 -0.001373573260347938 0.02 13800.0 50 243 44
 0.5264956706155562 0.0840376361834131 -0.005870133902763337 0.008183532212906523 0.02 13800.0 245 48 236
 0.8004478734824546 0.32315826959725963 0.004867701878244158 0.0047516427644128095 0.02 13800.0 211 4 237
 0.7287071290427227 0.32648946334495993 0.006872447840451414 -0.002028315793228825 0.02 13800.0 231 89 69
 0.511227089626205 0.26963621944496996 -2.590589048259602E-4 -0.01129450326422382 0.02 13800.0 248 213 70
 0.9351586163522156 0.20790712216322355 -0.0049432097538545045 0.009364487931707795 0.02 13800.0 239 148 226
 0.38885377025885814 0.6381718500877003 -0.007160576680815914 0.010722122670397911 0.02 13800.0 147 253 2
 0.8644578246786059 0.4888742118105998 -9.433226616647541E-4 -0.0014130789328025938 0.02 13800.0 144 17 191
 0.5926054478500831 0.3991744830077301 0.0013467920133026653 0.007756435612682171 0.02 13800.0 89 67 21
 0.7007334695672943 0.4208762366027863 0.005607103351364803 -0.005426644659968945 0.02 13800.0 20 54 24
 0.8939641167140295 0.7942863631610118 0.007194513324288731 0.00796638792919819 0.02 13800.0 34 20 38
 0.5778408570251696 0.07055176425256625 -0.009250852471750177 0.006104433244764534 0.02 13800.0 125 129 136
 0.581552667494885 0.8700085114086447 0.011882122695973392 -0.0036356501751708898 0.02 13800.0 55 129 243
 0.25013073733273383 0.702025625801467 -1.7867314784190437E-5 0.0016837336507942238 0.02 13800.0 132 155 26
 0.1622747282237957 0.6534677956444841 0.008074261495831882 -0.003926775792078235 0.02 13800.0 198 187 11
 0.25623409908545314 0.14263505499388535 0.013902205722617115 0.008137607191894101 0.02 13800.0 131 229 202
 0.8319371502235829 0.9007180498704807 0.008623566184778256 -0.0017221344895745143 0.02 13800.0 2 204 202
 0.34028920120725986 0.7863175927613881 -0.010418417674959107 0.0045918632991947 0.02 13800.0 68 198 20
 0.11303982797689358 0.25589268487014144 -0.004459937162146745 -0.0029308697247659114 0.02 13800.0 99 175 206
 0.9275735212698315 0.48185983261400833 -4.474963865125866E-4 -0.0038567311589030664 0.02 13800.0 131 124 206
 0.04976908057699232 0.6650807172718186 -0.006078376845871779 0.007345436674963379 0.02 13800.0 203 0 137
 0.28459826655362175 0.941894118275927 -0.004908679652836771 0.0010885502774916544 0.02 13800.0 73 101 172
 0.5997593102678234 0.3285230615032745 0.014001900072300483 -0.001466287602448154 0.02 13800.0 11 188 144
 0.3260484698385594 0.32707643324792973 -0.008468049090415937 -3.018080953544901E-4 0.02 13800.0 231 64 115
 0.2586622816372327 0.3038866056371212 0.018594689351473875 -0.006052406909105754 0.02 13800.0 29 1 99
 0.3826821933753765 0.26811849182182984 -0.009478417834016692 0.0015583079478022586 0.02 13800.0 117 0 18
 0.6621022077547523 0.4519909472096309 0.008829826965881749 7.879225482995559E-4 0.02 13800.0 237 138 214
 0.4305238880747505 0.32246787852120556 -0.0017452695574868733 -0.003062416957583902 0.02 13800.0 146 63 168
