100 particles, 2 Kelvin
100
 0.6771086511651921 0.4006140101681493 0.0033580109690791978 0.005475801295617869 0.02 13800.0 92 107 116
 0.7632600575139141 0.461424955378169 0.002191135126518739 -0.0029461279040706705 0.02 13800.0 191 205 184
 0.585227223348674 0.2611967765863628 -0.042942908152905086 -0.010584469320877365 0.02 13800.0 99 241 241
 0.7618941401326723 0.8945573642102735 0.03661667111374773 0.011089959506299155 0.02 13800.0 211 134 86
 0.5607106417564515 0.1884919919911589 0.011272770731947893 -0.005773131405990466 0.02 13800.0 127 83 254
 0.43794935402041374 0.9714503980290742 -0.006847400204898744 1.2887317170370144E-4 0.02 13800.0 14 31 103
 0.057876999472594594 0.2276891215192035 -4.752177322530169E-4 0.0012065506563180492 0.02 13800.0 118 5 47
 0.4201057186736013 0.399496042043488 0.013041654666429005 -0.033527793488471014 0.02 13800.0 173 30 218
 0.5110841220176933 0.7626961072639886 0.020663783730816163 0.010834175618591044 0.02 13800.0 231 59 96
 0.6533562204421012 0.9586894618924554 -0.022454180719403645 0.012171060953177763 0.02 13800.0 66 20 121
 0.5304684418672172 0.7159662272723593 -0.02603136088842961 0.03575175413315297 0.02 13800.0 159 112 68
 0.2394180783727776 0.7819853008763844 -0.015038456778022662 -0.011820961861654721 0.02 13800.0 161 153 52
 0.35599492558948725 0.37605653252990245 -0.002700134106801977 0.002391702214701093 0.02 13800.0 155 115 95
 0.8281949596650173 0.2849481156106977 -0.001267880960773335 -0.030543618651892323 0.02 13800.0 55 207 12
 0.7264782751627437 0.1678735578444567 -0.003506595370393467 -0.015268909898510787 0.02 13800.0 209 254 245
 0.8736724965122925 0.5504101171393306 -0.0015892257772713951 -0.020133055146500198 0.02 13800.0 16 177 182
 0.6222616757703068 0.6419737440853581 -0.0038494964803437517 -0.004443020780589838 0.02 13800.0 18 232 60
 0.8894944882352719 0.31311322035080397 -0.0010655450495070749 -0.011224513142163942 0.02 13800.0 16 30 91
 0.8004759874870246 0.11356925293248624 -0.001746793283922245 0.002824280128784735 0.02 13800.0 38 70 114
 0.09843858898296871 0.8533540615959095 -0.02221919810522281 0.023518261937467765 0.02 13800.0 198 137 8
 0.7078074974872698 0.4891532984094538 0.042321372130037435 -0.021596706178519685 0.02 13800.0 7 5 5
 0.91319879508621 0.023701703786561196 2.8792848034531627E-5 -0.008500606209256252 0.02 13800.0 232 19 88
 0.6557316864003142 0.5600327331578052 -1.168831505082026E-4 -0.005297037426364913 0.02 13800.0 218 44 209
 0.1804638717221792 0.8583555461903121 0.008906371592764117 -0.004003790870201021 0.02 13800.0 204 81 217
 0.6184320473595659 0.15407493949271267 -0.011566770444963922 -0.02437510568013125 0.02 13800.0 50 36 12
 0.21782981198162393 0.07260617337781138 -0.012135160304025934 -0.002185178257526312 0.02 13800.0 127 66 194
 0.03993044747030871 0.02584066227515589 0.014901684294632607 -0.021508762787452524 0.02 13800.0 63 142 211
 0.4243425711232521 0.9011769245956169 0.008458148630419729 0.005681705158276413 0.02 13800.0 5 235 234
 0.20018180505222954 0.3927805989227263 0.017601704505629694 -0.02353855423757011 0.02 13800.0 231 23 100
 0.5328963721542991 0.37766664705027253 -0.004793946767956674 -0.007953884648024488 0.02 13800.0 47 196 190
 0.31775266454734835 0.30300086220927624 0.03059639974509487 -0.013089623842628857 0.02 13800.0 67 26 140
 0.8512355867296756 0.812447700391141 0.013709052705129815 -0.01516918598080261 0.02 13800.0 95 30 207
 0.4397401376243729 0.10123891423998835 0.0024492178143688597 0.0041158401043463865 0.02 13800.0 66 75 196
 0.17624867164544175 0.6944667775644049 0.007819790703259846 0.01668540930588226 0.02 13800.0 239 248 152
 0.8917345487838862 0.24038631351824188 0.018066993314898607 -0.018954900638609776 0.02 13800.0 227 233 213
 0.4173777104556468 0.772052455801257 0.0053403690243767465 0.010451442501409482 0.02 13800.0 172 68 187
 0.05449638831122351 0.5343251130590885 -0.015913770156905063 0.00929888569511135 0.02 13800.0 26 80 141
 0.4619254032737726 0.4363239034254445 -0.0023807522380682594 0.02905081682387161 0.02 13800.0 230 47 84
 0.2555823439801183 0.9471298095216018 -0.003240062492786234 -0.021262349194257235 0.02 13800.0 217 143 18
 0.496274120890642 0.13855258843077192 -0.005454134529337446 0.012898199175545947 0.02 13800.0 169 193 168
 0.9095472125613911 0.7004753320263899 -0.012804608236223453 -0.015442653673461364 0.02 13800.0 13 134 191
 0.9146664435786565 0.9347963831384737 0.004448466075205354 0.029517874027029743 0.02 13800.0 95 205 54
 0.593230761599687 0.8023492664900365 -0.0028265098164524834 -0.002243441353246719 0.02 13800.0 14 119 122
 0.5066708756537888 0.8905602042227357 0.025113155052999936 -0.01721922479570287 0.02 13800.0 59 14 198
 0.20833824161374365 0.9771793301611237 -3.7158593670113746E-4 -0.01179764798890341 0.02 13800.0 16 217 99
 0.9429893901967326 0.24960403146741267 0.0026440596812098115 0.005954802112964692 0.02 13800.0 182 249 91
 0.5692365598777286 0.541246038851321 -0.008426774237505139 -0.009358764565538406 0.02 13800.0 184 175 40
 0.2773108918334637 0.17668522595835057 0.018838166246734213 -0.011919424802736302 0.02 13800.0 41 245 64
 0.9120620002363383 0.8074533019623023 -0.015584663619007514 -0.014643474137574004 0.02 13800.0 93 110 97
 0.2061933158351398 0.6625010113277606 0.007768686254551286 -0.003417031636994845 0.02 13800.0 30 180 249
 0.6848659563633223 0.14389572333586914 0.009847798606587837 -0.013707202119270625 0.02 13800.0 186 93 101
 0.2348827828070828 0.6281353123469555 0.008407299634755444 -0.003145329269608899 0.02 13800.0 14 224 228
 0.25618097693625747 0.04729915724897124 -0.015407242738130664 0.003924565794403222 0.02 13800.0 45 28 3
 0.5701435728167827 0.6206062612021956 0.0014079600923176954 -0.001334515208207536 0.02 13800.0 166 100 176
 0.24172313336960957 0.3939153417541398 -0.005275308257986304 0.01013315850641994 0.02 13800.0 162 24 12
 0.6293873557065043 0.7628911113093501 -0.002376463664966511 -0.019548498317994968 0.02 13800.0 112 241 80
 0.35357048485747455 0.6536506757146687 -0.017604622092793065 0.017665838321500565 0.02 13800.0 136 165 50
 0.8425658302749379 0.22411284790787747 -0.0108477664067465 -0.007983996655701627 0.02 13800.0 94 221 201
 0.45102513255961807 0.6043221427470439 -0.030522096936878886 -0.0020825804086087203 0.02 13800.0 196 164 128
 0.2645423527035972 0.5016150353398836 0.0017056572339751858 -0.011169197539143192 0.02 13800.0 81 144 152
 0.14044048499654807 0.19017884568886478 -0.0027284994105260824 0.007067831067418018 0.02 13800.0 143 94 50
 0.13664668020192575 0.7307830196793215 -0.00556771300769958 0.0032450227030839905 0.02 13800.0 182 161 7
 0.9179246514194241 0.34921508693171355 0.025301405755085417 -0.0030324160576646955 0.02 13800.0 58 112 175
 0.4316720132985724 0.8552231251095914 0.014057569833352174 -0.005242731275236823 0.02 13800.0 170 88 142
 0.7563931030877856 0.41839141932088475 -0.009948132751786128 -0.014905294949707897 0.02 13800.0 198 11 238
 0.8078900038117278 0.02862338434221129 0.0011425957104377457 -0.02538163039469918 0.02 13800.0 195 146 13
 0.23798418172815927 0.3179542747152337 0.0011455566293427574 -0.004522596065121079 0.02 13800.0 248 82 125
 0.5943428373063578 0.07336715288373129 -0.0042589773127367355 0.0024432072719649534 0.02 13800.0 155 157 0
 0.8547763267554921 0.7687339168737626 0.005769207563760958 -0.01951438289689902 0.02 13800.0 131 127 253
 0.3950899976116439 0.6600375212359916 -0.0037028623116024274 -0.0011947073901656903 0.02 13800.0 57 85 15
 0.2349279860803461 0.8365644656334034 0.013760081099951625 -0.013858656999293973 0.02 13800.0 20 227 111
 0.9546267579222897 0.5715067205899905 0.0195945650451168 0.0012246508278496901 0.02 13800.0 46 134 66
 0.5885838996009221 0.3651683532068644 -0.019947345278389123 -0.01885939124047014 0.02 13800.0 82 99 75
 0.4096407010492411 0.5881172398491075 0.01525835345351552 -0.003498069237435012 0.02 13800.0 71 176 224
 0.7271172718636413 0.942013545185246 0.016047782965459383 -0.005009895490577946 0.02 13800.0 250 251 213
 0.09481016013961759 0.7308976068825097 0.012883201639419962 -0.024216933920426786 0.02 13800.0 197 106 194
 0.3392925329504388 0.815792580034308 -0.00878278458881843 -0.004673864689211298 0.02 13800.0 252 97 221
 0.10048432075668683 0.40049959418547304 0.012383259376429402 0.018365636716623633 0.02 13800.0 227 142 251
 0.09675200800926641 0.022977280304147554 0.009635186819900927 -0.009670841288851283 0.02 13800.0 232 107 132
 0.6057465616919789 0.2052299261224869 -0.009851100637445886 0.01867647900474349 0.02 13800.0 99 94 19
 0.7225942636110789 0.7679272374855588 0.023927292620557483 -0.00821355279213203 0.02 13800.0 47 176 98
 0.3332618173929679 0.7183251734067574 -0.01922516321168517 0.01298299307374702 0.02 13800.0 4 202 145
 0.2126779430911353 0.18736091608373873 -0.011281671787894385 -0.012720276205536243 0.02 13800.0 224 83 10
 0.41768999023011116 0.5362946230824932 3.724626873484616E-4 -0.0021197200373996583 0.02 13800.0 9 245 63
 0.67237999461042 0.5087006703604252 -0.01227265313503955 -0.009942109237730555 0.02 13800.0 209 196 10
 0.7376167402601636 0.5725043141383683 0.018138696467201405 -0.014067234767185202 0.02 13800.0 211 209 4
 0.38172513941156755 0.31696144423520606 -0.014835708910444334 0.0025548695030601573 0.02 13800.0 98 1 152
 0.22996806509784176 0.4369166355023651 6.069475196247651E-4 0.008275278757749867 0.02 13800.0 146 244 1
 0.44433321166543827 0.24949382258182787 -0.005230754040238057 -0.011560413997754536 0.02 13800.0 19 147 30
 0.20893598257874826 0.5074538173697521 -0.0047890450552407 0.008158137016300316 0.02 13800.0 200 1 163
 0.15016398600172529 0.6436059908973414 -0.0035795363273634353 0.025139701021776695 0.02 13800.0 160 78 47
 0.3647425257453729 0.19381511322613004 0.005549182284152782 -0.007980629465798174 0.02 13800.0 101 36 152
 0.7968908533180621 0.948069861055907 -0.011090117511337622 0.007535707760359112 0.02 13800.0 162 149 203
 0.3480918353265563 0.27177164988757724 0.004693927140912709 -0.014469366248620635 0.02 13800.0 237 235 206
 0.7655624957386291 0.6424729595913637 0.005099285250654522 0.006422649810087345 0.02 13800.0 65 10 38
 0.44579554597322635 0.7288351457269587 0.009075458088102931 -0.007996997161761952 0.02 13800.0 74 188 192
 0.4918946749562129 0.3404529263690788 -0.003188901999313945 -0.020423634978643655 0.02 13800.0 215 89 8
 0.6696526489755338 0.7857179120938306 0.01823881832301534 0.025575001220981997 0.02 13800.0 127 34 231
 0.5427409185473296 0.2566164506529011 -6.581877685931355E-4 0.008832365000673591 0.02 13800.0 179 253 39
 0.5246140681776309 0.16949341540177515 7.739373818048539E-4 0.01885658059292187 0.02 13800.0 208 187 122
